%YAML 1.1
%TAG !u! tag:unity3d.com,2011:
--- !u!1 &985402724361895296
GameObject:
  m_ObjectHideFlags: 0
  m_CorrespondingSourceObject: {fileID: 0}
  m_PrefabInstance: {fileID: 0}
  m_PrefabAsset: {fileID: 0}
  serializedVersion: 6
  m_Component:
  - component: {fileID: 1435216891014069065}
  - component: {fileID: 8006126888679911266}
  m_Layer: 31
  m_Name: Simple
  m_TagString: Untagged
  m_Icon: {fileID: 0}
  m_NavMeshLayer: 0
  m_StaticEditorFlags: 0
  m_IsActive: 1
--- !u!4 &1435216891014069065
Transform:
  m_ObjectHideFlags: 0
  m_CorrespondingSourceObject: {fileID: 0}
  m_PrefabInstance: {fileID: 0}
  m_PrefabAsset: {fileID: 0}
  m_GameObject: {fileID: 985402724361895296}
  m_LocalRotation: {x: 0, y: 0, z: 0, w: 1}
  m_LocalPosition: {x: 0, y: 0, z: 0}
  m_LocalScale: {x: 1, y: 1, z: 1}
  m_Children:
  - {fileID: 1978451614911754353}
  m_Father: {fileID: 0}
  m_RootOrder: 0
  m_LocalEulerAnglesHint: {x: 0, y: 0, z: 0}
--- !u!156049354 &8006126888679911266
Grid:
  m_ObjectHideFlags: 0
  m_CorrespondingSourceObject: {fileID: 0}
  m_PrefabInstance: {fileID: 0}
  m_PrefabAsset: {fileID: 0}
  m_GameObject: {fileID: 985402724361895296}
  m_Enabled: 1
  m_CellSize: {x: 1, y: 1, z: 0}
  m_CellGap: {x: 0, y: 0, z: 0}
  m_CellLayout: 0
  m_CellSwizzle: 0
--- !u!1 &7964382497437161413
GameObject:
  m_ObjectHideFlags: 0
  m_CorrespondingSourceObject: {fileID: 0}
  m_PrefabInstance: {fileID: 0}
  m_PrefabAsset: {fileID: 0}
  serializedVersion: 6
  m_Component:
  - component: {fileID: 1978451614911754353}
  - component: {fileID: 2815145104555144726}
  - component: {fileID: 1261889830792189732}
  m_Layer: 0
  m_Name: Layer1
  m_TagString: Untagged
  m_Icon: {fileID: 0}
  m_NavMeshLayer: 0
  m_StaticEditorFlags: 0
  m_IsActive: 1
--- !u!4 &1978451614911754353
Transform:
  m_ObjectHideFlags: 0
  m_CorrespondingSourceObject: {fileID: 0}
  m_PrefabInstance: {fileID: 0}
  m_PrefabAsset: {fileID: 0}
  m_GameObject: {fileID: 7964382497437161413}
  m_LocalRotation: {x: -0, y: -0, z: -0, w: 1}
  m_LocalPosition: {x: 0, y: 0, z: 0}
  m_LocalScale: {x: 1, y: 1, z: 1}
  m_Children: []
  m_Father: {fileID: 1435216891014069065}
  m_RootOrder: 0
  m_LocalEulerAnglesHint: {x: 0, y: 0, z: 0}
--- !u!1839735485 &2815145104555144726
Tilemap:
  m_ObjectHideFlags: 0
  m_CorrespondingSourceObject: {fileID: 0}
  m_PrefabInstance: {fileID: 0}
  m_PrefabAsset: {fileID: 0}
  m_GameObject: {fileID: 7964382497437161413}
  m_Enabled: 1
  m_Tiles:
  - first: {x: 1, y: -7, z: 0}
    second:
      serializedVersion: 2
      m_TileIndex: 69
      m_TileSpriteIndex: 0
      m_TileMatrixIndex: 0
      m_TileColorIndex: 0
      m_TileObjectToInstantiateIndex: 65535
      m_AllTileFlags: 1073741825
  - first: {x: -2, y: -5, z: 0}
    second:
      serializedVersion: 2
      m_TileIndex: 60
      m_TileSpriteIndex: 63
      m_TileMatrixIndex: 0
      m_TileColorIndex: 0
      m_TileObjectToInstantiateIndex: 65535
      m_AllTileFlags: 1073741825
  - first: {x: -1, y: -5, z: 0}
    second:
      serializedVersion: 2
      m_TileIndex: 61
      m_TileSpriteIndex: 61
      m_TileMatrixIndex: 0
      m_TileColorIndex: 0
      m_TileObjectToInstantiateIndex: 65535
      m_AllTileFlags: 1073741825
  - first: {x: 2, y: -5, z: 0}
    second:
      serializedVersion: 2
      m_TileIndex: 62
      m_TileSpriteIndex: 62
      m_TileMatrixIndex: 0
      m_TileColorIndex: 0
      m_TileObjectToInstantiateIndex: 65535
      m_AllTileFlags: 1073741825
  - first: {x: 3, y: -5, z: 0}
    second:
      serializedVersion: 2
      m_TileIndex: 63
      m_TileSpriteIndex: 69
      m_TileMatrixIndex: 0
      m_TileColorIndex: 0
      m_TileObjectToInstantiateIndex: 65535
      m_AllTileFlags: 1073741825
  - first: {x: 4, y: -5, z: 0}
    second:
      serializedVersion: 2
      m_TileIndex: 64
      m_TileSpriteIndex: 64
      m_TileMatrixIndex: 0
      m_TileColorIndex: 0
      m_TileObjectToInstantiateIndex: 65535
      m_AllTileFlags: 1073741825
  - first: {x: 5, y: -5, z: 0}
    second:
      serializedVersion: 2
      m_TileIndex: 65
      m_TileSpriteIndex: 65
      m_TileMatrixIndex: 0
      m_TileColorIndex: 0
      m_TileObjectToInstantiateIndex: 65535
      m_AllTileFlags: 1073741825
  - first: {x: 7, y: -5, z: 0}
    second:
      serializedVersion: 2
      m_TileIndex: 66
      m_TileSpriteIndex: 66
      m_TileMatrixIndex: 0
      m_TileColorIndex: 0
      m_TileObjectToInstantiateIndex: 65535
      m_AllTileFlags: 1073741825
  - first: {x: 8, y: -5, z: 0}
    second:
      serializedVersion: 2
      m_TileIndex: 67
      m_TileSpriteIndex: 67
      m_TileMatrixIndex: 0
      m_TileColorIndex: 0
      m_TileObjectToInstantiateIndex: 65535
      m_AllTileFlags: 1073741825
  - first: {x: 9, y: -5, z: 0}
    second:
      serializedVersion: 2
      m_TileIndex: 68
      m_TileSpriteIndex: 68
      m_TileMatrixIndex: 0
      m_TileColorIndex: 0
      m_TileObjectToInstantiateIndex: 65535
      m_AllTileFlags: 1073741825
  - first: {x: -2, y: -4, z: 0}
    second:
      serializedVersion: 2
      m_TileIndex: 48
      m_TileSpriteIndex: 60
      m_TileMatrixIndex: 0
      m_TileColorIndex: 0
      m_TileObjectToInstantiateIndex: 65535
      m_AllTileFlags: 1073741825
  - first: {x: -1, y: -4, z: 0}
    second:
      serializedVersion: 2
      m_TileIndex: 49
      m_TileSpriteIndex: 49
      m_TileMatrixIndex: 0
      m_TileColorIndex: 0
      m_TileObjectToInstantiateIndex: 65535
      m_AllTileFlags: 1073741825
  - first: {x: 0, y: -4, z: 0}
    second:
      serializedVersion: 2
      m_TileIndex: 50
      m_TileSpriteIndex: 50
      m_TileMatrixIndex: 0
      m_TileColorIndex: 0
      m_TileObjectToInstantiateIndex: 65535
      m_AllTileFlags: 1073741825
  - first: {x: 1, y: -4, z: 0}
    second:
      serializedVersion: 2
      m_TileIndex: 51
      m_TileSpriteIndex: 51
      m_TileMatrixIndex: 0
      m_TileColorIndex: 0
      m_TileObjectToInstantiateIndex: 65535
      m_AllTileFlags: 1073741825
  - first: {x: 2, y: -4, z: 0}
    second:
      serializedVersion: 2
      m_TileIndex: 52
      m_TileSpriteIndex: 52
      m_TileMatrixIndex: 0
      m_TileColorIndex: 0
      m_TileObjectToInstantiateIndex: 65535
      m_AllTileFlags: 1073741825
  - first: {x: 3, y: -4, z: 0}
    second:
      serializedVersion: 2
      m_TileIndex: 53
      m_TileSpriteIndex: 53
      m_TileMatrixIndex: 0
      m_TileColorIndex: 0
      m_TileObjectToInstantiateIndex: 65535
      m_AllTileFlags: 1073741825
  - first: {x: 4, y: -4, z: 0}
    second:
      serializedVersion: 2
      m_TileIndex: 54
      m_TileSpriteIndex: 54
      m_TileMatrixIndex: 0
      m_TileColorIndex: 0
      m_TileObjectToInstantiateIndex: 65535
      m_AllTileFlags: 1073741825
  - first: {x: 5, y: -4, z: 0}
    second:
      serializedVersion: 2
      m_TileIndex: 55
      m_TileSpriteIndex: 55
      m_TileMatrixIndex: 0
      m_TileColorIndex: 0
      m_TileObjectToInstantiateIndex: 65535
      m_AllTileFlags: 1073741825
  - first: {x: 6, y: -4, z: 0}
    second:
      serializedVersion: 2
      m_TileIndex: 56
      m_TileSpriteIndex: 56
      m_TileMatrixIndex: 0
      m_TileColorIndex: 0
      m_TileObjectToInstantiateIndex: 65535
      m_AllTileFlags: 1073741825
  - first: {x: 7, y: -4, z: 0}
    second:
      serializedVersion: 2
      m_TileIndex: 57
      m_TileSpriteIndex: 57
      m_TileMatrixIndex: 0
      m_TileColorIndex: 0
      m_TileObjectToInstantiateIndex: 65535
      m_AllTileFlags: 1073741825
  - first: {x: 8, y: -4, z: 0}
    second:
      serializedVersion: 2
      m_TileIndex: 58
      m_TileSpriteIndex: 58
      m_TileMatrixIndex: 0
      m_TileColorIndex: 0
      m_TileObjectToInstantiateIndex: 65535
      m_AllTileFlags: 1073741825
  - first: {x: 9, y: -4, z: 0}
    second:
      serializedVersion: 2
      m_TileIndex: 59
      m_TileSpriteIndex: 59
      m_TileMatrixIndex: 0
      m_TileColorIndex: 0
      m_TileObjectToInstantiateIndex: 65535
      m_AllTileFlags: 1073741825
  - first: {x: -2, y: -3, z: 0}
    second:
      serializedVersion: 2
      m_TileIndex: 36
      m_TileSpriteIndex: 48
      m_TileMatrixIndex: 0
      m_TileColorIndex: 0
      m_TileObjectToInstantiateIndex: 65535
      m_AllTileFlags: 1073741825
  - first: {x: -1, y: -3, z: 0}
    second:
      serializedVersion: 2
      m_TileIndex: 37
      m_TileSpriteIndex: 37
      m_TileMatrixIndex: 0
      m_TileColorIndex: 0
      m_TileObjectToInstantiateIndex: 65535
      m_AllTileFlags: 1073741825
  - first: {x: 0, y: -3, z: 0}
    second:
      serializedVersion: 2
      m_TileIndex: 38
      m_TileSpriteIndex: 38
      m_TileMatrixIndex: 0
      m_TileColorIndex: 0
      m_TileObjectToInstantiateIndex: 65535
      m_AllTileFlags: 1073741825
  - first: {x: 1, y: -3, z: 0}
    second:
      serializedVersion: 2
      m_TileIndex: 39
      m_TileSpriteIndex: 39
      m_TileMatrixIndex: 0
      m_TileColorIndex: 0
      m_TileObjectToInstantiateIndex: 65535
      m_AllTileFlags: 1073741825
  - first: {x: 2, y: -3, z: 0}
    second:
      serializedVersion: 2
      m_TileIndex: 40
      m_TileSpriteIndex: 40
      m_TileMatrixIndex: 0
      m_TileColorIndex: 0
      m_TileObjectToInstantiateIndex: 65535
      m_AllTileFlags: 1073741825
  - first: {x: 3, y: -3, z: 0}
    second:
      serializedVersion: 2
      m_TileIndex: 41
      m_TileSpriteIndex: 41
      m_TileMatrixIndex: 0
      m_TileColorIndex: 0
      m_TileObjectToInstantiateIndex: 65535
      m_AllTileFlags: 1073741825
  - first: {x: 4, y: -3, z: 0}
    second:
      serializedVersion: 2
      m_TileIndex: 42
      m_TileSpriteIndex: 42
      m_TileMatrixIndex: 0
      m_TileColorIndex: 0
      m_TileObjectToInstantiateIndex: 65535
      m_AllTileFlags: 1073741825
  - first: {x: 5, y: -3, z: 0}
    second:
      serializedVersion: 2
      m_TileIndex: 43
      m_TileSpriteIndex: 43
      m_TileMatrixIndex: 0
      m_TileColorIndex: 0
      m_TileObjectToInstantiateIndex: 65535
      m_AllTileFlags: 1073741825
  - first: {x: 6, y: -3, z: 0}
    second:
      serializedVersion: 2
      m_TileIndex: 44
      m_TileSpriteIndex: 44
      m_TileMatrixIndex: 0
      m_TileColorIndex: 0
      m_TileObjectToInstantiateIndex: 65535
      m_AllTileFlags: 1073741825
  - first: {x: 7, y: -3, z: 0}
    second:
      serializedVersion: 2
      m_TileIndex: 45
      m_TileSpriteIndex: 45
      m_TileMatrixIndex: 0
      m_TileColorIndex: 0
      m_TileObjectToInstantiateIndex: 65535
      m_AllTileFlags: 1073741825
  - first: {x: 8, y: -3, z: 0}
    second:
      serializedVersion: 2
      m_TileIndex: 46
      m_TileSpriteIndex: 46
      m_TileMatrixIndex: 0
      m_TileColorIndex: 0
      m_TileObjectToInstantiateIndex: 65535
      m_AllTileFlags: 1073741825
  - first: {x: 9, y: -3, z: 0}
    second:
      serializedVersion: 2
      m_TileIndex: 47
      m_TileSpriteIndex: 47
      m_TileMatrixIndex: 0
      m_TileColorIndex: 0
      m_TileObjectToInstantiateIndex: 65535
      m_AllTileFlags: 1073741825
  - first: {x: -2, y: -2, z: 0}
    second:
      serializedVersion: 2
      m_TileIndex: 24
      m_TileSpriteIndex: 36
      m_TileMatrixIndex: 0
      m_TileColorIndex: 0
      m_TileObjectToInstantiateIndex: 65535
      m_AllTileFlags: 1073741825
  - first: {x: -1, y: -2, z: 0}
    second:
      serializedVersion: 2
      m_TileIndex: 25
      m_TileSpriteIndex: 25
      m_TileMatrixIndex: 0
      m_TileColorIndex: 0
      m_TileObjectToInstantiateIndex: 65535
      m_AllTileFlags: 1073741825
  - first: {x: 0, y: -2, z: 0}
    second:
      serializedVersion: 2
      m_TileIndex: 26
      m_TileSpriteIndex: 26
      m_TileMatrixIndex: 0
      m_TileColorIndex: 0
      m_TileObjectToInstantiateIndex: 65535
      m_AllTileFlags: 1073741825
  - first: {x: 1, y: -2, z: 0}
    second:
      serializedVersion: 2
      m_TileIndex: 27
      m_TileSpriteIndex: 27
      m_TileMatrixIndex: 0
      m_TileColorIndex: 0
      m_TileObjectToInstantiateIndex: 65535
      m_AllTileFlags: 1073741825
  - first: {x: 2, y: -2, z: 0}
    second:
      serializedVersion: 2
      m_TileIndex: 28
      m_TileSpriteIndex: 28
      m_TileMatrixIndex: 0
      m_TileColorIndex: 0
      m_TileObjectToInstantiateIndex: 65535
      m_AllTileFlags: 1073741825
  - first: {x: 3, y: -2, z: 0}
    second:
      serializedVersion: 2
      m_TileIndex: 29
      m_TileSpriteIndex: 29
      m_TileMatrixIndex: 0
      m_TileColorIndex: 0
      m_TileObjectToInstantiateIndex: 65535
      m_AllTileFlags: 1073741825
  - first: {x: 4, y: -2, z: 0}
    second:
      serializedVersion: 2
      m_TileIndex: 30
      m_TileSpriteIndex: 30
      m_TileMatrixIndex: 0
      m_TileColorIndex: 0
      m_TileObjectToInstantiateIndex: 65535
      m_AllTileFlags: 1073741825
  - first: {x: 5, y: -2, z: 0}
    second:
      serializedVersion: 2
      m_TileIndex: 31
      m_TileSpriteIndex: 31
      m_TileMatrixIndex: 0
      m_TileColorIndex: 0
      m_TileObjectToInstantiateIndex: 65535
      m_AllTileFlags: 1073741825
  - first: {x: 6, y: -2, z: 0}
    second:
      serializedVersion: 2
      m_TileIndex: 32
      m_TileSpriteIndex: 32
      m_TileMatrixIndex: 0
      m_TileColorIndex: 0
      m_TileObjectToInstantiateIndex: 65535
      m_AllTileFlags: 1073741825
  - first: {x: 7, y: -2, z: 0}
    second:
      serializedVersion: 2
      m_TileIndex: 33
      m_TileSpriteIndex: 33
      m_TileMatrixIndex: 0
      m_TileColorIndex: 0
      m_TileObjectToInstantiateIndex: 65535
      m_AllTileFlags: 1073741825
  - first: {x: 8, y: -2, z: 0}
    second:
      serializedVersion: 2
      m_TileIndex: 34
      m_TileSpriteIndex: 34
      m_TileMatrixIndex: 0
      m_TileColorIndex: 0
      m_TileObjectToInstantiateIndex: 65535
      m_AllTileFlags: 1073741825
  - first: {x: 9, y: -2, z: 0}
    second:
      serializedVersion: 2
      m_TileIndex: 35
      m_TileSpriteIndex: 35
      m_TileMatrixIndex: 0
      m_TileColorIndex: 0
      m_TileObjectToInstantiateIndex: 65535
      m_AllTileFlags: 1073741825
  - first: {x: -2, y: -1, z: 0}
    second:
      serializedVersion: 2
      m_TileIndex: 12
      m_TileSpriteIndex: 24
      m_TileMatrixIndex: 0
      m_TileColorIndex: 0
      m_TileObjectToInstantiateIndex: 65535
      m_AllTileFlags: 1073741825
  - first: {x: -1, y: -1, z: 0}
    second:
      serializedVersion: 2
      m_TileIndex: 13
      m_TileSpriteIndex: 13
      m_TileMatrixIndex: 0
      m_TileColorIndex: 0
      m_TileObjectToInstantiateIndex: 65535
      m_AllTileFlags: 1073741825
  - first: {x: 0, y: -1, z: 0}
    second:
      serializedVersion: 2
      m_TileIndex: 14
      m_TileSpriteIndex: 14
      m_TileMatrixIndex: 0
      m_TileColorIndex: 0
      m_TileObjectToInstantiateIndex: 65535
      m_AllTileFlags: 1073741825
  - first: {x: 1, y: -1, z: 0}
    second:
      serializedVersion: 2
      m_TileIndex: 15
      m_TileSpriteIndex: 15
      m_TileMatrixIndex: 0
      m_TileColorIndex: 0
      m_TileObjectToInstantiateIndex: 65535
      m_AllTileFlags: 1073741825
  - first: {x: 2, y: -1, z: 0}
    second:
      serializedVersion: 2
      m_TileIndex: 16
      m_TileSpriteIndex: 16
      m_TileMatrixIndex: 0
      m_TileColorIndex: 0
      m_TileObjectToInstantiateIndex: 65535
      m_AllTileFlags: 1073741825
  - first: {x: 3, y: -1, z: 0}
    second:
      serializedVersion: 2
      m_TileIndex: 17
      m_TileSpriteIndex: 17
      m_TileMatrixIndex: 0
      m_TileColorIndex: 0
      m_TileObjectToInstantiateIndex: 65535
      m_AllTileFlags: 1073741825
  - first: {x: 4, y: -1, z: 0}
    second:
      serializedVersion: 2
      m_TileIndex: 18
      m_TileSpriteIndex: 18
      m_TileMatrixIndex: 0
      m_TileColorIndex: 0
      m_TileObjectToInstantiateIndex: 65535
      m_AllTileFlags: 1073741825
  - first: {x: 5, y: -1, z: 0}
    second:
      serializedVersion: 2
      m_TileIndex: 19
      m_TileSpriteIndex: 19
      m_TileMatrixIndex: 0
      m_TileColorIndex: 0
      m_TileObjectToInstantiateIndex: 65535
      m_AllTileFlags: 1073741825
  - first: {x: 6, y: -1, z: 0}
    second:
      serializedVersion: 2
      m_TileIndex: 20
      m_TileSpriteIndex: 20
      m_TileMatrixIndex: 0
      m_TileColorIndex: 0
      m_TileObjectToInstantiateIndex: 65535
      m_AllTileFlags: 1073741825
  - first: {x: 7, y: -1, z: 0}
    second:
      serializedVersion: 2
      m_TileIndex: 21
      m_TileSpriteIndex: 21
      m_TileMatrixIndex: 0
      m_TileColorIndex: 0
      m_TileObjectToInstantiateIndex: 65535
      m_AllTileFlags: 1073741825
  - first: {x: 8, y: -1, z: 0}
    second:
      serializedVersion: 2
      m_TileIndex: 22
      m_TileSpriteIndex: 22
      m_TileMatrixIndex: 0
      m_TileColorIndex: 0
      m_TileObjectToInstantiateIndex: 65535
      m_AllTileFlags: 1073741825
  - first: {x: 9, y: -1, z: 0}
    second:
      serializedVersion: 2
      m_TileIndex: 23
      m_TileSpriteIndex: 23
      m_TileMatrixIndex: 0
      m_TileColorIndex: 0
      m_TileObjectToInstantiateIndex: 65535
      m_AllTileFlags: 1073741825
  - first: {x: -2, y: 0, z: 0}
    second:
      serializedVersion: 2
      m_TileIndex: 0
      m_TileSpriteIndex: 12
      m_TileMatrixIndex: 0
      m_TileColorIndex: 0
      m_TileObjectToInstantiateIndex: 65535
      m_AllTileFlags: 1073741825
  - first: {x: -1, y: 0, z: 0}
    second:
      serializedVersion: 2
      m_TileIndex: 1
      m_TileSpriteIndex: 1
      m_TileMatrixIndex: 0
      m_TileColorIndex: 0
      m_TileObjectToInstantiateIndex: 65535
      m_AllTileFlags: 1073741825
  - first: {x: 0, y: 0, z: 0}
    second:
      serializedVersion: 2
      m_TileIndex: 2
      m_TileSpriteIndex: 2
      m_TileMatrixIndex: 0
      m_TileColorIndex: 0
      m_TileObjectToInstantiateIndex: 65535
      m_AllTileFlags: 1073741825
  - first: {x: 1, y: 0, z: 0}
    second:
      serializedVersion: 2
      m_TileIndex: 3
      m_TileSpriteIndex: 3
      m_TileMatrixIndex: 0
      m_TileColorIndex: 0
      m_TileObjectToInstantiateIndex: 65535
      m_AllTileFlags: 1073741825
  - first: {x: 2, y: 0, z: 0}
    second:
      serializedVersion: 2
      m_TileIndex: 4
      m_TileSpriteIndex: 4
      m_TileMatrixIndex: 0
      m_TileColorIndex: 0
      m_TileObjectToInstantiateIndex: 65535
      m_AllTileFlags: 1073741825
  - first: {x: 3, y: 0, z: 0}
    second:
      serializedVersion: 2
      m_TileIndex: 5
      m_TileSpriteIndex: 5
      m_TileMatrixIndex: 0
      m_TileColorIndex: 0
      m_TileObjectToInstantiateIndex: 65535
      m_AllTileFlags: 1073741825
  - first: {x: 4, y: 0, z: 0}
    second:
      serializedVersion: 2
      m_TileIndex: 6
      m_TileSpriteIndex: 6
      m_TileMatrixIndex: 0
      m_TileColorIndex: 0
      m_TileObjectToInstantiateIndex: 65535
      m_AllTileFlags: 1073741825
  - first: {x: 5, y: 0, z: 0}
    second:
      serializedVersion: 2
      m_TileIndex: 7
      m_TileSpriteIndex: 7
      m_TileMatrixIndex: 0
      m_TileColorIndex: 0
      m_TileObjectToInstantiateIndex: 65535
      m_AllTileFlags: 1073741825
  - first: {x: 6, y: 0, z: 0}
    second:
      serializedVersion: 2
      m_TileIndex: 8
      m_TileSpriteIndex: 8
      m_TileMatrixIndex: 0
      m_TileColorIndex: 0
      m_TileObjectToInstantiateIndex: 65535
      m_AllTileFlags: 1073741825
  - first: {x: 7, y: 0, z: 0}
    second:
      serializedVersion: 2
      m_TileIndex: 9
      m_TileSpriteIndex: 9
      m_TileMatrixIndex: 0
      m_TileColorIndex: 0
      m_TileObjectToInstantiateIndex: 65535
      m_AllTileFlags: 1073741825
  - first: {x: 8, y: 0, z: 0}
    second:
      serializedVersion: 2
      m_TileIndex: 10
      m_TileSpriteIndex: 10
      m_TileMatrixIndex: 0
      m_TileColorIndex: 0
      m_TileObjectToInstantiateIndex: 65535
      m_AllTileFlags: 1073741825
  - first: {x: 9, y: 0, z: 0}
    second:
      serializedVersion: 2
      m_TileIndex: 11
      m_TileSpriteIndex: 11
      m_TileMatrixIndex: 0
      m_TileColorIndex: 0
      m_TileObjectToInstantiateIndex: 65535
      m_AllTileFlags: 1073741825
  m_AnimatedTiles: {}
  m_TileAssetArray:
  - m_RefCount: 1
    m_Data: {fileID: 11400000, guid: 3976c8ace58de3941b35f10c003dc372, type: 2}
  - m_RefCount: 1
    m_Data: {fileID: 11400000, guid: ab73873067ac7c2469eb796a14f7132c, type: 2}
  - m_RefCount: 1
    m_Data: {fileID: 11400000, guid: 56c27afe2bebc5a49a6f53fb631c02ff, type: 2}
  - m_RefCount: 1
    m_Data: {fileID: 11400000, guid: 4be1697dbb6ab644aaa466beb4fde87c, type: 2}
  - m_RefCount: 1
    m_Data: {fileID: 11400000, guid: 31b750ab685ed0e4f99d1e9123be68c1, type: 2}
  - m_RefCount: 1
    m_Data: {fileID: 11400000, guid: 1d095ee2c8226154291480db9e7c6582, type: 2}
  - m_RefCount: 1
    m_Data: {fileID: 11400000, guid: d8c7f47873d5b314c95357ad4d80cbca, type: 2}
  - m_RefCount: 1
    m_Data: {fileID: 11400000, guid: 082b426002aca934c93ab53938231478, type: 2}
  - m_RefCount: 1
    m_Data: {fileID: 11400000, guid: 1a7c86c9af87ecb46a7ff7368bb1ab03, type: 2}
  - m_RefCount: 1
    m_Data: {fileID: 11400000, guid: 7d3ad0fcd0516e24199e1e716f3748d2, type: 2}
  - m_RefCount: 1
    m_Data: {fileID: 11400000, guid: 8f40dbafc24c04d468cf28dc36979d9a, type: 2}
  - m_RefCount: 1
    m_Data: {fileID: 11400000, guid: e887762509f0f4542a2e91dee671c9e0, type: 2}
  - m_RefCount: 1
    m_Data: {fileID: 11400000, guid: c5ef37ed78a2bbc46a4e97eff4f76da4, type: 2}
  - m_RefCount: 1
    m_Data: {fileID: 11400000, guid: b1852e8abeea9894a8a453a331fc51a0, type: 2}
  - m_RefCount: 1
    m_Data: {fileID: 11400000, guid: 1930836f870cade4b9b2f74c663186b4, type: 2}
  - m_RefCount: 1
    m_Data: {fileID: 11400000, guid: cbf640c87e4e45446822ab26941b2740, type: 2}
  - m_RefCount: 1
    m_Data: {fileID: 11400000, guid: 563f390830829e445a75fdc81c21fef4, type: 2}
  - m_RefCount: 1
    m_Data: {fileID: 11400000, guid: 4dbb25e9fa38de94d910c2fd9b6d526c, type: 2}
  - m_RefCount: 1
    m_Data: {fileID: 11400000, guid: a6f732bde19c2424c8354421889bf672, type: 2}
  - m_RefCount: 1
    m_Data: {fileID: 11400000, guid: 14a6463af926cb6418c6d79f2cf71afc, type: 2}
  - m_RefCount: 1
    m_Data: {fileID: 11400000, guid: 9d8c91e8f44baee4e9054a152e8ac610, type: 2}
  - m_RefCount: 1
    m_Data: {fileID: 11400000, guid: 87711a467150a8a44a5f9151822c14ce, type: 2}
  - m_RefCount: 1
    m_Data: {fileID: 11400000, guid: 56be4b8b9fee6b74b9ad51fffb800107, type: 2}
  - m_RefCount: 1
    m_Data: {fileID: 11400000, guid: 001d1375b5ff2d542b64e64048cdf27e, type: 2}
  - m_RefCount: 1
    m_Data: {fileID: 11400000, guid: 6f40d937c2f908641957f770d65cd240, type: 2}
  - m_RefCount: 1
    m_Data: {fileID: 11400000, guid: 7decf262fb99bf749a66c9bfa489aa71, type: 2}
  - m_RefCount: 1
    m_Data: {fileID: 11400000, guid: 2fd461d3a1bd80043b9967f0e6b636c5, type: 2}
  - m_RefCount: 1
    m_Data: {fileID: 11400000, guid: 15138681bb9358e48933eb6ed4745929, type: 2}
  - m_RefCount: 1
    m_Data: {fileID: 11400000, guid: 65fd3c9f37be26d41ac130e141ff5bec, type: 2}
  - m_RefCount: 1
    m_Data: {fileID: 11400000, guid: a3f6062812c450049b1242fac1316981, type: 2}
  - m_RefCount: 1
    m_Data: {fileID: 11400000, guid: fe753e9b2e94e204bab3bdbd5cbc30e8, type: 2}
  - m_RefCount: 1
    m_Data: {fileID: 11400000, guid: ab92e016bc926e94dbbf36129d65a069, type: 2}
  - m_RefCount: 1
    m_Data: {fileID: 11400000, guid: 3469f0f352ebbd144bfa273e757cd4fb, type: 2}
  - m_RefCount: 1
    m_Data: {fileID: 11400000, guid: 85d60e7481ff75647b3a702c805de60f, type: 2}
  - m_RefCount: 1
    m_Data: {fileID: 11400000, guid: 84ba98272ce6f3343ae73c3805a6e61d, type: 2}
  - m_RefCount: 1
    m_Data: {fileID: 11400000, guid: 879bc1c097a1be246a6e1b657e3ec10b, type: 2}
  - m_RefCount: 1
    m_Data: {fileID: 11400000, guid: 91638deea85a5d24e8fc3af0a1ba7874, type: 2}
  - m_RefCount: 1
    m_Data: {fileID: 11400000, guid: 1ac4b6c5d5be24d4a82caa2199454a48, type: 2}
  - m_RefCount: 1
    m_Data: {fileID: 11400000, guid: bc39d3ac0d2cc5440a27f556d029a80f, type: 2}
  - m_RefCount: 1
    m_Data: {fileID: 11400000, guid: 04be8ac17b017bc41956e1eef983e9ec, type: 2}
  - m_RefCount: 1
    m_Data: {fileID: 11400000, guid: 6fcd59e016dda764c9892497bb58a28e, type: 2}
  - m_RefCount: 1
    m_Data: {fileID: 11400000, guid: 086ad078042813741ae4696293d36652, type: 2}
  - m_RefCount: 1
    m_Data: {fileID: 11400000, guid: ceede9a1d6e42bd4b838a079ce725aef, type: 2}
  - m_RefCount: 1
    m_Data: {fileID: 11400000, guid: 2ee3c639d7546f443970348f3662cf32, type: 2}
  - m_RefCount: 1
    m_Data: {fileID: 11400000, guid: 705e8c0d0fc009b4fa7a91245e9fd1d0, type: 2}
  - m_RefCount: 1
    m_Data: {fileID: 11400000, guid: cc86e137be84670458a85a19ac517dca, type: 2}
  - m_RefCount: 1
    m_Data: {fileID: 11400000, guid: 9f9f5007102fa3442824c99914ef9e9f, type: 2}
  - m_RefCount: 1
    m_Data: {fileID: 11400000, guid: 1fd23ceb4d181c447804d4e5b2ff079c, type: 2}
  - m_RefCount: 1
    m_Data: {fileID: 11400000, guid: 55c8ff55639c92744818bdcda1a44d9e, type: 2}
  - m_RefCount: 1
    m_Data: {fileID: 11400000, guid: 272669549ff862d4f8d74b6b3225153d, type: 2}
  - m_RefCount: 1
    m_Data: {fileID: 11400000, guid: d3afb68425b78b74ea6cd0944f5c0438, type: 2}
  - m_RefCount: 1
    m_Data: {fileID: 11400000, guid: 78a652662a004cc40952b2b082eef325, type: 2}
  - m_RefCount: 1
    m_Data: {fileID: 11400000, guid: ddcfb0528d4c8944caf595b673347aa9, type: 2}
  - m_RefCount: 1
    m_Data: {fileID: 11400000, guid: 08da567b27c33e54d914fac7e44b139e, type: 2}
  - m_RefCount: 1
    m_Data: {fileID: 11400000, guid: 1127c75021cef264e951cd537781e963, type: 2}
  - m_RefCount: 1
    m_Data: {fileID: 11400000, guid: 2d0aa92ba60704149a8461937f07adf5, type: 2}
  - m_RefCount: 1
    m_Data: {fileID: 11400000, guid: e9b668cd33a61614aa5a52ec33408d79, type: 2}
  - m_RefCount: 1
    m_Data: {fileID: 11400000, guid: 18bf7157c57e6f442873cee616163184, type: 2}
  - m_RefCount: 1
    m_Data: {fileID: 11400000, guid: f27f6f062238e7f40970e0ac9224d640, type: 2}
  - m_RefCount: 1
    m_Data: {fileID: 11400000, guid: b106bdd926444d04fb349f1cbfce7d42, type: 2}
  - m_RefCount: 1
    m_Data: {fileID: 11400000, guid: 8e9964b7372da3e469be01a51231ba9f, type: 2}
  - m_RefCount: 1
    m_Data: {fileID: 11400000, guid: 388a187a3b951d7428729f284738585a, type: 2}
  - m_RefCount: 1
    m_Data: {fileID: 11400000, guid: d2fbd375bb7208d4d8dd462ff4752052, type: 2}
  - m_RefCount: 1
    m_Data: {fileID: 11400000, guid: c320d90542ee0e045875b3d6d9c32d78, type: 2}
  - m_RefCount: 1
    m_Data: {fileID: 11400000, guid: a0d005cd37db95242b8ca6da34cb6ba2, type: 2}
  - m_RefCount: 1
    m_Data: {fileID: 11400000, guid: d4d11636688c85845984493292f4377a, type: 2}
  - m_RefCount: 1
    m_Data: {fileID: 11400000, guid: 22f94febfd9457f49b066f22dbe89735, type: 2}
  - m_RefCount: 1
    m_Data: {fileID: 11400000, guid: e572c09914ff86f4fab419d237c94907, type: 2}
  - m_RefCount: 1
    m_Data: {fileID: 11400000, guid: b75cee5e8f1e32d4abd9d142721dcde8, type: 2}
  - m_RefCount: 1
    m_Data: {fileID: 11400000, guid: 6af6c70c3241e134f93a3c34d6de8754, type: 2}
  m_TileSpriteArray:
  - m_RefCount: 1
    m_Data: {fileID: -2639183517979538350, guid: b1a4a85e2d912284fb0c673526f1dd72, type: 3}
  - m_RefCount: 1
    m_Data: {fileID: -8350508449692389318, guid: b1a4a85e2d912284fb0c673526f1dd72, type: 3}
  - m_RefCount: 1
    m_Data: {fileID: 8887620610825205554, guid: b1a4a85e2d912284fb0c673526f1dd72, type: 3}
  - m_RefCount: 1
    m_Data: {fileID: 2202132957550899298, guid: b1a4a85e2d912284fb0c673526f1dd72, type: 3}
  - m_RefCount: 1
    m_Data: {fileID: -4222504921489679922, guid: b1a4a85e2d912284fb0c673526f1dd72, type: 3}
  - m_RefCount: 1
    m_Data: {fileID: -6724937439701085816, guid: b1a4a85e2d912284fb0c673526f1dd72, type: 3}
  - m_RefCount: 1
    m_Data: {fileID: -336145291184560286, guid: b1a4a85e2d912284fb0c673526f1dd72, type: 3}
  - m_RefCount: 1
    m_Data: {fileID: 8534484575332351819, guid: b1a4a85e2d912284fb0c673526f1dd72, type: 3}
  - m_RefCount: 1
    m_Data: {fileID: -8043391518384863920, guid: b1a4a85e2d912284fb0c673526f1dd72, type: 3}
  - m_RefCount: 1
    m_Data: {fileID: -3516300223036372457, guid: b1a4a85e2d912284fb0c673526f1dd72, type: 3}
  - m_RefCount: 1
    m_Data: {fileID: -4911749474155842001, guid: b1a4a85e2d912284fb0c673526f1dd72, type: 3}
  - m_RefCount: 1
    m_Data: {fileID: -2937367072834471884, guid: b1a4a85e2d912284fb0c673526f1dd72, type: 3}
  - m_RefCount: 1
    m_Data: {fileID: -8286595410744692613, guid: b1a4a85e2d912284fb0c673526f1dd72, type: 3}
  - m_RefCount: 1
    m_Data: {fileID: 5518664041036552131, guid: b1a4a85e2d912284fb0c673526f1dd72, type: 3}
  - m_RefCount: 1
    m_Data: {fileID: -1530688729810379667, guid: b1a4a85e2d912284fb0c673526f1dd72, type: 3}
  - m_RefCount: 1
    m_Data: {fileID: 7630373192601785766, guid: b1a4a85e2d912284fb0c673526f1dd72, type: 3}
  - m_RefCount: 1
    m_Data: {fileID: 3162963299178492552, guid: b1a4a85e2d912284fb0c673526f1dd72, type: 3}
  - m_RefCount: 1
    m_Data: {fileID: 6083236921585461833, guid: b1a4a85e2d912284fb0c673526f1dd72, type: 3}
  - m_RefCount: 1
    m_Data: {fileID: 4561251494511198156, guid: b1a4a85e2d912284fb0c673526f1dd72, type: 3}
  - m_RefCount: 1
    m_Data: {fileID: -2530146019544956161, guid: b1a4a85e2d912284fb0c673526f1dd72, type: 3}
  - m_RefCount: 1
    m_Data: {fileID: -8627342460736939793, guid: b1a4a85e2d912284fb0c673526f1dd72, type: 3}
  - m_RefCount: 1
    m_Data: {fileID: 5451470382614822835, guid: b1a4a85e2d912284fb0c673526f1dd72, type: 3}
  - m_RefCount: 1
    m_Data: {fileID: -2471951891971962435, guid: b1a4a85e2d912284fb0c673526f1dd72, type: 3}
  - m_RefCount: 1
    m_Data: {fileID: -1948940947632124050, guid: b1a4a85e2d912284fb0c673526f1dd72, type: 3}
  - m_RefCount: 1
    m_Data: {fileID: -1249799590581990746, guid: b1a4a85e2d912284fb0c673526f1dd72, type: 3}
  - m_RefCount: 1
    m_Data: {fileID: -3305942664722942939, guid: b1a4a85e2d912284fb0c673526f1dd72, type: 3}
  - m_RefCount: 1
    m_Data: {fileID: 6224429320864803105, guid: b1a4a85e2d912284fb0c673526f1dd72, type: 3}
  - m_RefCount: 1
    m_Data: {fileID: 8078439391727204147, guid: b1a4a85e2d912284fb0c673526f1dd72, type: 3}
  - m_RefCount: 1
    m_Data: {fileID: -2261299836275086700, guid: b1a4a85e2d912284fb0c673526f1dd72, type: 3}
  - m_RefCount: 1
    m_Data: {fileID: -1528781653356329134, guid: b1a4a85e2d912284fb0c673526f1dd72, type: 3}
  - m_RefCount: 1
    m_Data: {fileID: -6023398852035684284, guid: b1a4a85e2d912284fb0c673526f1dd72, type: 3}
  - m_RefCount: 1
    m_Data: {fileID: -4399038214246400358, guid: b1a4a85e2d912284fb0c673526f1dd72, type: 3}
  - m_RefCount: 1
    m_Data: {fileID: -1910155164072827510, guid: b1a4a85e2d912284fb0c673526f1dd72, type: 3}
  - m_RefCount: 1
    m_Data: {fileID: -7826021084278066976, guid: b1a4a85e2d912284fb0c673526f1dd72, type: 3}
  - m_RefCount: 1
    m_Data: {fileID: -7440519611925847857, guid: b1a4a85e2d912284fb0c673526f1dd72, type: 3}
  - m_RefCount: 1
    m_Data: {fileID: -6777083448199838275, guid: b1a4a85e2d912284fb0c673526f1dd72, type: 3}
  - m_RefCount: 1
    m_Data: {fileID: -6086043957084070487, guid: b1a4a85e2d912284fb0c673526f1dd72, type: 3}
  - m_RefCount: 1
    m_Data: {fileID: 7069104868647739016, guid: b1a4a85e2d912284fb0c673526f1dd72, type: 3}
  - m_RefCount: 1
    m_Data: {fileID: -1726714988186552437, guid: b1a4a85e2d912284fb0c673526f1dd72, type: 3}
  - m_RefCount: 1
    m_Data: {fileID: 8469343928864647202, guid: b1a4a85e2d912284fb0c673526f1dd72, type: 3}
  - m_RefCount: 1
    m_Data: {fileID: 5622444532128249549, guid: b1a4a85e2d912284fb0c673526f1dd72, type: 3}
  - m_RefCount: 1
    m_Data: {fileID: -327887111667471941, guid: b1a4a85e2d912284fb0c673526f1dd72, type: 3}
  - m_RefCount: 1
    m_Data: {fileID: 472590127768612788, guid: b1a4a85e2d912284fb0c673526f1dd72, type: 3}
  - m_RefCount: 1
    m_Data: {fileID: 1813168518639695039, guid: b1a4a85e2d912284fb0c673526f1dd72, type: 3}
  - m_RefCount: 1
    m_Data: {fileID: -4321544189238420294, guid: b1a4a85e2d912284fb0c673526f1dd72, type: 3}
  - m_RefCount: 1
    m_Data: {fileID: -764375720999573198, guid: b1a4a85e2d912284fb0c673526f1dd72, type: 3}
  - m_RefCount: 1
    m_Data: {fileID: 3012137392603517021, guid: b1a4a85e2d912284fb0c673526f1dd72, type: 3}
  - m_RefCount: 1
    m_Data: {fileID: -2401058618870690801, guid: b1a4a85e2d912284fb0c673526f1dd72, type: 3}
  - m_RefCount: 1
    m_Data: {fileID: 4140537856832226508, guid: b1a4a85e2d912284fb0c673526f1dd72, type: 3}
  - m_RefCount: 1
    m_Data: {fileID: 7359407368350051542, guid: b1a4a85e2d912284fb0c673526f1dd72, type: 3}
  - m_RefCount: 1
    m_Data: {fileID: 8490578505644503571, guid: b1a4a85e2d912284fb0c673526f1dd72, type: 3}
  - m_RefCount: 1
    m_Data: {fileID: 1986953727758020353, guid: b1a4a85e2d912284fb0c673526f1dd72, type: 3}
  - m_RefCount: 1
    m_Data: {fileID: -8167474284031727906, guid: b1a4a85e2d912284fb0c673526f1dd72, type: 3}
  - m_RefCount: 1
    m_Data: {fileID: -2393955167580948792, guid: b1a4a85e2d912284fb0c673526f1dd72, type: 3}
  - m_RefCount: 1
    m_Data: {fileID: 3625825142367628340, guid: b1a4a85e2d912284fb0c673526f1dd72, type: 3}
  - m_RefCount: 1
    m_Data: {fileID: -8470554104967202900, guid: b1a4a85e2d912284fb0c673526f1dd72, type: 3}
  - m_RefCount: 1
    m_Data: {fileID: 955870007384300804, guid: b1a4a85e2d912284fb0c673526f1dd72, type: 3}
  - m_RefCount: 1
    m_Data: {fileID: 5375414816731478473, guid: b1a4a85e2d912284fb0c673526f1dd72, type: 3}
  - m_RefCount: 1
    m_Data: {fileID: 3146522257022395041, guid: b1a4a85e2d912284fb0c673526f1dd72, type: 3}
  - m_RefCount: 1
    m_Data: {fileID: -7311495047559332934, guid: b1a4a85e2d912284fb0c673526f1dd72, type: 3}
  - m_RefCount: 1
    m_Data: {fileID: 4503763332715922027, guid: b1a4a85e2d912284fb0c673526f1dd72, type: 3}
  - m_RefCount: 1
    m_Data: {fileID: -1576155781760445376, guid: b1a4a85e2d912284fb0c673526f1dd72, type: 3}
  - m_RefCount: 1
    m_Data: {fileID: 7467581851824177967, guid: b1a4a85e2d912284fb0c673526f1dd72, type: 3}
  - m_RefCount: 1
    m_Data: {fileID: 3418669773219653960, guid: b1a4a85e2d912284fb0c673526f1dd72, type: 3}
  - m_RefCount: 1
    m_Data: {fileID: -4008005891412063544, guid: b1a4a85e2d912284fb0c673526f1dd72, type: 3}
  - m_RefCount: 1
    m_Data: {fileID: -5673704964860739402, guid: b1a4a85e2d912284fb0c673526f1dd72, type: 3}
  - m_RefCount: 1
    m_Data: {fileID: -5416455854101839997, guid: b1a4a85e2d912284fb0c673526f1dd72, type: 3}
  - m_RefCount: 1
    m_Data: {fileID: -582320875459768183, guid: b1a4a85e2d912284fb0c673526f1dd72, type: 3}
  - m_RefCount: 1
    m_Data: {fileID: 6002137311327758323, guid: b1a4a85e2d912284fb0c673526f1dd72, type: 3}
  - m_RefCount: 1
    m_Data: {fileID: -6590590603154538531, guid: b1a4a85e2d912284fb0c673526f1dd72, type: 3}
  m_TileMatrixArray:
  - m_RefCount: 70
    m_Data:
      e00: 1
      e01: 0
      e02: 0
      e03: 0
      e10: 0
      e11: 1
      e12: 0
      e13: 0
      e20: 0
      e21: 0
      e22: 1
      e23: 0
      e30: 0
      e31: 0
      e32: 0
      e33: 1
  m_TileColorArray:
  - m_RefCount: 70
    m_Data: {r: 1, g: 1, b: 1, a: 1}
  m_TileObjectToInstantiateArray: []
  m_AnimationFrameRate: 1
  m_Color: {r: 1, g: 1, b: 1, a: 1}
  m_Origin: {x: -2, y: -7, z: 0}
  m_Size: {x: 13, y: 9, z: 1}
  m_TileAnchor: {x: 0.5, y: 0.5, z: 0}
  m_TileOrientation: 0
  m_TileOrientationMatrix:
    e00: 1
    e01: 0
    e02: 0
    e03: 0
    e10: 0
    e11: 1
    e12: 0
    e13: 0
    e20: 0
    e21: 0
    e22: 1
    e23: 0
    e30: 0
    e31: 0
    e32: 0
    e33: 1
--- !u!483693784 &1261889830792189732
TilemapRenderer:
  m_ObjectHideFlags: 0
  m_CorrespondingSourceObject: {fileID: 0}
  m_PrefabInstance: {fileID: 0}
  m_PrefabAsset: {fileID: 0}
  m_GameObject: {fileID: 7964382497437161413}
  m_Enabled: 1
  m_CastShadows: 0
  m_ReceiveShadows: 0
  m_DynamicOccludee: 0
  m_MotionVectors: 1
  m_LightProbeUsage: 0
  m_ReflectionProbeUsage: 0
  m_RayTracingMode: 0
  m_RayTraceProcedural: 0
  m_RenderingLayerMask: 1
  m_RendererPriority: 0
  m_Materials:
  - {fileID: 10754, guid: 0000000000000000f000000000000000, type: 0}
  m_StaticBatchInfo:
    firstSubMesh: 0
    subMeshCount: 0
  m_StaticBatchRoot: {fileID: 0}
  m_ProbeAnchor: {fileID: 0}
  m_LightProbeVolumeOverride: {fileID: 0}
  m_ScaleInLightmap: 1
  m_ReceiveGI: 1
  m_PreserveUVs: 0
  m_IgnoreNormalsForChartDetection: 0
  m_ImportantGI: 0
  m_StitchLightmapSeams: 1
  m_SelectedEditorRenderState: 0
  m_MinimumChartSize: 4
  m_AutoUVMaxDistance: 0.5
  m_AutoUVMaxAngle: 89
  m_LightmapParameters: {fileID: 0}
  m_SortingLayerID: 0
  m_SortingLayer: 0
  m_SortingOrder: 0
  m_ChunkSize: {x: 32, y: 32, z: 32}
  m_ChunkCullingBounds: {x: 0, y: 0, z: 0}
  m_MaxChunkCount: 16
  m_MaxFrameAge: 16
  m_SortOrder: 0
  m_Mode: 0
  m_DetectChunkCullingBounds: 0
  m_MaskInteraction: 0
--- !u!114 &7506603224163470430
MonoBehaviour:
  m_ObjectHideFlags: 0
  m_CorrespondingSourceObject: {fileID: 0}
  m_PrefabInstance: {fileID: 0}
  m_PrefabAsset: {fileID: 0}
  m_GameObject: {fileID: 0}
  m_Enabled: 1
  m_EditorHideFlags: 0
  m_Script: {fileID: 12395, guid: 0000000000000000e000000000000000, type: 0}
  m_Name: Palette Settings
  m_EditorClassIdentifier: 
  cellSizing: 0
